{
    "updateInfo":{
        "appName": "RECO-PIN Surveys",
        "appDescription": "A collection of surveys and tools for the RECO-PIN project",
        "packageName": "com.nuchwezi.recopin",
        "versionCode": "11",
        "versionName": "2.0",
        "forceUpdate": false,
        "autoUpdate": true,
        "apkUrl": "https://bitbucket.org/nemesisfixx/reco-pin-survey-binaries/raw/master/RECO_PIN_Surveys.apk",
	"message": "This add the play/download option to the Radio Program app. Update to test."
    }
}

